Evaluation of tcga model
…
tail(report, 3)

## # A tibble: 3 x 5
##   X1           precision recall `f1-score` support
##   <chr>            <dbl>  <dbl>      <dbl>   <dbl>
## 1 accuracy         NA     NA          0.94    1963
## 2 macro avg         0.92   0.93       0.92    1963
## 3 weighted avg      0.95   0.94       0.94    1963

We obtained an accuracy and recall higher than 90%.

filter(report, !X1 %in% c("accuracy", "macro avg", "weighted avg")) %>%
  arrange(precision)

## # A tibble: 34 x 5
##    X1        precision recall `f1-score` support
##    <chr>         <dbl>  <dbl>      <dbl>   <dbl>
##  1 TCGA-MESO     0.570   0.94       0.71      17
##  2 TCGA-CHOL     0.62    0.71       0.67       7
##  3 TCGA-GBM      0.62    0.84       0.71      31
##  4 TCGA-READ     0.69    0.55       0.61      20
##  5 TCGA-ESCA     0.81    0.59       0.69      37
##  6 TCGA-KICH     0.87    1          0.93      13
##  7 TCGA-COAD     0.88    0.92       0.9       63
##  8 TCGA-LUAD     0.89    1          0.94      95
##  9 TCGA-UVM      0.89    1          0.94      16
## 10 TCGA-STAD     0.9     0.97       0.93      79
## #  with 24 more rows
…
